{
  "codeLens.enable": true,
  "codeLens.separator": "~",
  "coc.preferences.formatOnSaveFiletypes": ["css", "markdown", "typescript", "typescriptreact", "javascript", "javascriptreact", "html"],
  "rust-analyzer.checkOnSave.command": "clippy",
}

